{
  "ctrlCfg": {
    "type": "Netio",
    "cfg": {
      "NetIO": {
        "##host": "192.168.1.114",
        "#host": "128.141.55.228",
        "host": "128.141.55.234",
        "#1host": "pcatlitkflx04",
        "#2host": "pcatlitkflx03",
	"#3host": "felixstripserver",
        "txport": 12341,
        "rxport": 12351,
        "manchester": false,
        "flip": false,
        "extend": false,
        "fetype": "star",
	"verbose": true,
	"debug": true
      },
        "NetioRxCore":{"host":"pcatlitkflx03","rxport":12350,"verbose":true,"debug":true,"flip":false},
	"NetioTxCore":{"host":"pcatlitkflx03","txport":12340,"verbose":true,"debug":true,"flip":false}
    }
  }
}

