{
  "scan": {
    "analysis": {
      "0": {
        "algorithm": "ScurveFitter",
        "storeInputHisto": 1,
        "config": {
          "reverse": true,
          "parametersOfInterest": [
            "ABCs_BVT"
          ],
          "dumpStarJsonDataResults": true,
          "dumpDebugScurvePlots": true
        }
      },
      "n_count": 1
    },
    "histogrammer": {
      "0": {
        "algorithm": "OccupancyMap",
        "config": {}
      },
      "n_count": 1
    },
    "loops": [
      {
        "config": {
          "max": 6,
          "min": 0,
          "step": 2,
          "parameter": "ABCs_BVT"
        },
        "loopAction": "StdParameterLoop"
      },
      {
        "config": {
          "trig_count": 500,
          "trig_frequency": 400,
          "trig_time": 0,
          "l0_latency": 20,
          "noInject": false
        },
        "loopAction": "StarTriggerLoop"
      },
      {
        "config": {
          "total_iteration_time_us": 3000000
        },
        "loopAction": "StdDataLoop"
      }
    ],
    "name": "vt50Scan"

  }
}
